{
  "annotations": {
    "list": [
      {
        "builtIn": 1,
        "datasource": {
          "type": "grafana",
          "uid": "-- Grafana --"
        },
        "enable": true,
        "hide": true,
        "iconColor": "rgba(0, 211, 255, 1)",
        "name": "Annotations & Alerts",
        "type": "dashboard"
      }
    ]
  },
  "editable": true,
  "fiscalYearStartMonth": 0,
  "graphTooltip": 0,
  "id": 8,
  "links": [],
  "panels": [
    {
      "datasource": {
        "type": "prometheus",
        "uid": "P8EF59D9EDC8101ED"
      },
      "fieldConfig": {
        "defaults": {
          "color": {
            "mode": "fixed"
          },
          "custom": {
            "align": "center",
            "cellOptions": {
              "type": "auto"
            },
            "filterable": true,
            "inspect": false
          },
          "mappings": [
            {
              "options": {
                "0": {
                  "text": "inactive"
                },
                "1": {
                  "text": "active"
                },
                "802": {
                  "text": "WLAN"
                },
                "ethernet": {
                  "text": "LAN"
                }
              },
              "type": "value"
            }
          ],
          "noValue": "-",
          "thresholds": {
            "mode": "absolute",
            "steps": [
              {
                "color": "super-light-blue",
                "value": null
              }
            ]
          },
          "unit": "string"
        },
        "overrides": [
          {
            "matcher": {
              "id": "byName",
              "options": "IP"
            },
            "properties": [
              {
                "id": "custom.width",
                "value": 140
              }
            ]
          }
        ]
      },
      "gridPos": {
        "h": 21,
        "w": 20,
        "x": 0,
        "y": 0
      },
      "id": 2,
      "options": {
        "cellHeight": "sm",
        "footer": {
          "countRows": false,
          "fields": "",
          "reducer": [
            "sum"
          ],
          "show": false
        },
        "frameIndex": 25,
        "showHeader": true,
        "sortBy": [
          {
            "desc": true,
            "displayName": "Status"
          }
        ]
      },
      "pluginVersion": "11.1.0",
      "targets": [
        {
          "datasource": {
            "type": "prometheus",
            "uid": "P8EF59D9EDC8101ED"
          },
          "expr": "gateway_host_active",
          "format": "table",
          "instant": true,
          "interval": "",
          "intervalFactor": 1,
          "legendFormat": "",
          "refId": "A"
        }
      ],
      "title": "Hosts LAN / WLAN",
      "transformations": [
        {
          "id": "filterFieldsByName",
          "options": {
            "include": {
              "names": [
                "hostname",
                "interfacetype",
                "ipaddress",
                "macaddress",
                "Value"
              ]
            }
          }
        },
        {
          "id": "organize",
          "options": {
            "excludeByName": {},
            "indexByName": {
              "Value": 0,
              "hostname": 1,
              "interfacetype": 2,
              "ipaddress": 3,
              "macaddress": 4
            },
            "renameByName": {
              "Value": "Status",
              "hostname": "Hostname",
              "interfacetype": "Connection Type",
              "ipaddress": "IP",
              "macaddress": "MAC"
            }
          }
        }
      ],
      "type": "table"
    }
  ],
  "schemaVersion": 39,
  "tags": [],
  "templating": {
    "list": []
  },
  "time": {
    "from": "now-6h",
    "to": "now"
  },
  "timepicker": {},
  "timezone": "browser",
  "title": "FritzBox LAN/WLAN",
  "uid": "fe5bhobbbp5ogf",
  "version": 3,
  "weekStart": ""
}